\relax 
\@writefile{toc}{\contentsline {section}{\numberline {1}Introduction}{1}}
\@writefile{toc}{\contentsline {section}{\numberline {2}Why Elk?}{2}}
\@writefile{toc}{\contentsline {section}{\numberline {3}A preamble of sorts}{3}}
\@writefile{toc}{\contentsline {subsection}{\numberline {3.1}Various notes}{3}}
\@writefile{toc}{\contentsline {section}{\numberline {4}Syntax}{4}}
\@writefile{toc}{\contentsline {subsection}{\numberline {4.1}Basic Syntax}{4}}
\@writefile{toc}{\contentsline {subsection}{\numberline {4.2}Hash Symbols}{4}}
\@writefile{toc}{\contentsline {subsection}{\numberline {4.3}Syntax Example}{6}}
\@writefile{toc}{\contentsline {section}{\numberline {5}Software that will be written with Elk}{7}}
\@writefile{toc}{\contentsline {section}{\numberline {6}Standard Library}{8}}
\@writefile{toc}{\contentsline {subsection}{\numberline {6.1}types}{8}}
\@writefile{toc}{\contentsline {subsection}{\numberline {6.2}Functions}{8}}
\@writefile{toc}{\contentsline {subsection}{\numberline {6.3}regex engine}{9}}
\@writefile{toc}{\contentsline {subsection}{\numberline {6.4}errors}{9}}
