8 bits long, but furthest left bit is used for 'initialized as nil'

128 types in total (0 - 127, 128 and beyond)

0 - Nil - 64 bits
1 - Cons (also list)
2 - Pointer
3 - Structure
4 - byte
5 - word
6 - double word
7 - quad word

    8 - 15 - Anything that isn't a byte, word, double word, or quad word and needs a generalized type designation, i.e. 128-bit, but not a double



    16 - 31 : length : byte
8 -
 - Symbol
 - Function
 - Fixed array
 - Dynamic Array

   32 - 64 : length : word

   65 - 
 
